[
 {
  "id": 1,
  "parentid": 0,
  "question": "Leaves small, with parallel venation?",
  "plants": [
   {
    "genus": null,
    "family": "Epacridaceae"
   }
  ]
 },
 {
  "id": 2,
  "parentid": 0,
  "question": "Leaves aromatic?",
  "plants": null,
  "children": [
   {
    "id": 9,
    "parentid": 2,
    "question": "Leaves with translucent oil dots?",
    "plants": null,
    "children": [
     {
      "id": 11,
      "parentid": 9,
      "question": "Fruit a single capsule?",
      "plants": [
       {
        "genus": null,
        "family": "Myrtaceae"
       }
      ]
     },
     {
      "id": 12,
      "parentid": 9,
      "question": "Fruit consisting of four or five segments",
      "plants": [
       {
        "genus": null,
        "family": "Rutaceae"
       }
      ]
     }
    ]
   },
   {
    "id": 10,
    "parentid": 2,
    "question": "Leaves without translucent oil dots?",
    "plants": null
   },
   {
    "id": 13,
    "parentid": 2,
    "question": "Leaves without translucent oil dots?",
    "plants": null,
    "children": [
     {
      "id": 14,
      "parentid": 13,
      "question": "Leaves opposite?",
      "plants": [
       {
        "genus": null,
        "family": "Lamiaceae"
       },
       {
        "genus": "Lantana",
        "family": "Verbenaceae"
       }
      ]
     },
     {
      "id": 15,
      "parentid": 13,
      "question": "Leaves alternate, slightly sticky?",
      "plants": [
       {
        "genus": "Senecio",
        "family": "Asteraceae"
       },
       {
        "genus": "Dodonaea",
        "family": "Sapindaceae"
       },
       {
        "genus": "ovata",
        "family": "Goodendiaceae"
       }
      ]
     }
    ]
   }
  ]
 },
 {
  "id": 3,
  "parentid": 0,
  "question": "The inflorescence is a fig?",
  "plants": [
   {
    "genus": "ficus",
    "family": "Moraceae"
   }
  ]
 },
 {
  "id": 4,
  "parentid": 0,
  "question": "Leaves compound?",
  "plants": [
   {
    "genus": "Polyscias",
    "family": "Araliaceae"
   },
   {
    "genus": "Melia",
    "family": "Meliaceae"
   },
   {
    "genus": "Synoum",
    "family": "Meliaceae"
   },
   {
    "genus": "Acacia",
    "family": "Mimosaceae"
   },
   {
    "genus": "Dodonaea",
    "family": "Sapindaceae"
   }
  ]
 },
 {
  "id": 5,
  "parentid": 0,
  "question": "Low prickly shrub, leaves with obscure venation, seeds borne on swollen succulent stalks?",
  "plants": [
   {
    "genus": null,
    "family": "Podocarpaceae"
   }
  ]
 },
 {
  "id": 6,
  "parentid": 0,
  "question": "Leaves apparently absent or tiny and scale-like?",
  "plants": [
   {
    "genus": null,
    "family": "Casuarinaceae"
   },
   {
    "genus": "Amperea",
    "family": "Euphorbiaceae"
   },
   {
    "genus": null,
    "family": "Santalaceae"
   },
   {
    "genus": null,
    "family": "Cupressaceae"
   }
  ]
 },
 {
  "id": 7,
  "parentid": 0,
  "question": "Fruit conspiciously winged?",
  "plants": [
   {
    "genus": "Dodonaea",
    "family": "Sapindaceae"
   }
  ]
 },
 {
  "id": 8,
  "parentid": 0,
  "question": "Fruit a three chambered ball? Flowers inconspicuous. Stipules present?",
  "plants": [
   {
    "genus": null,
    "family": "Euphorbiaceae"
   }
  ]
 }
]
